\relax 
\citation{yung2016interpretation}
\citation{yung2016usage}
\citation{yung2016usage}
\citation{frank2012}
\citation{frank2012}
\@writefile{toc}{\contentsline {section}{\numberline {1}Introduction}{1}}
\newlabel{S:1}{{1}{1}}
\@writefile{toc}{\contentsline {section}{\numberline {2}Theoretical Background}{1}}
\newlabel{S:2}{{2}{1}}
\@writefile{toc}{\contentsline {subsection}{\numberline {2.1}Rational Speech Acts}{1}}
\citation{yung2016interpretation}
\citation{yung2016interpretation}
\@writefile{lof}{\contentsline {figure}{\numberline {1}{\ignorespaces The RSA model for discourse interpretation, reprinted from \cite  {yung2016interpretation}}}{2}}
\newlabel{lab:RSA}{{1}{2}}
\@writefile{toc}{\contentsline {subsubsection}{\numberline {2.1.1}RSA Applied to Discourse Relation Interpretation}{2}}
\citation{prasad2008}
\citation{xue2016}
\citation{xue2015}
\citation{chenlo2014}
\@writefile{toc}{\contentsline {section}{\numberline {3}Experiments}{3}}
\@writefile{toc}{\contentsline {subsection}{\numberline {3.1}Data}{3}}
\@writefile{lot}{\contentsline {table}{\numberline {1}{\ignorespaces Accuracies of sense classification on the test set using different contexts}}{4}}
\newlabel{tab:results_sense}{{1}{4}}
\@writefile{toc}{\contentsline {subsection}{\numberline {3.2}Sense Disambiguation}{4}}
\@writefile{toc}{\contentsline {subsubsection}{\numberline {3.2.1}Length features}{4}}
\citation{turney2002}
\citation{hatzi2000}
\bibstyle{model1-num-names}
\bibdata{bibo.bib}
\bibcite{yung2016interpretation}{{1}{2016{}}{{Yung et~al.}}{{Yung, Duh, Komura, and Matsumoto}}}
\bibcite{yung2016usage}{{2}{2016{}}{{Yung et~al.}}{{Yung, Duh, Komura, and Matsumoto}}}
\bibcite{frank2012}{{3}{2012}{{Frank and Goodman}}{{}}}
\bibcite{prasad2008}{{4}{2008}{{Prasad et~al.}}{{Prasad, Dinesh, Lee, Miltsakaki, Robaldo, Joshi, and Webber}}}
\bibcite{xue2016}{{5}{2016}{{Xue et~al.}}{{Xue, Ng, Pradhan, Rutherford, Webber, Wang, and Wang}}}
\@writefile{toc}{\contentsline {subsubsection}{\numberline {3.2.2}Relative Positions}{5}}
\@writefile{toc}{\contentsline {subsubsection}{\numberline {3.2.3}Syntactic Patterns}{5}}
\@writefile{toc}{\contentsline {subsubsection}{\numberline {3.2.4}Results}{5}}
\bibcite{xue2015}{{6}{2015}{{Xue et~al.}}{{Xue, Ng, Pradhan, Prasad, Bryant, and Rutherford}}}
\bibcite{chenlo2014}{{7}{2014}{{Chenlo and Losada}}{{}}}
\bibcite{turney2002}{{8}{2002}{{Turney}}{{}}}
\bibcite{hatzi2000}{{9}{2000}{{Hatzivassiloglou and Wiebe}}{{}}}
